{"response":{"status":"ok","userTier":"developer","total":185866,"startIndex":1,"pageSize":10,"currentPage":1,"pages":18587,"edition":{"id":"world","webTitle":"World news","webUrl":"https://www.theguardian.com/world","apiUrl":"https://content.guardianapis.com/world","code":"default"},"section":{"id":"world","webTitle":"World news","webUrl":"https://www.theguardian.com/world","apiUrl":"https://content.guardianapis.com/world","editions":[{"id":"world","webTitle":"World news","webUrl":"https://www.theguardian.com/world","apiUrl":"https://content.guardianapis.com/world","code":"default"}]},"results":[{"id":"world/2019/jun/15/hong-kong-leader-carrie-lam-extradition-bill-delay-protests-china","type":"article","sectionId":"world","sectionName":"World news","webPublicationDate":"2019-06-15T07:27:08Z","webTitle":"Hong Kong leader suspends extradition bill amid protest pressure","webUrl":"https://www.theguardian.com/world/2019/jun/15/hong-kong-leader-carrie-lam-extradition-bill-delay-protests-china","apiUrl":"https://content.guardianapis.com/world/2019/jun/15/hong-kong-leader-carrie-lam-extradition-bill-delay-protests-china","isHosted":false,"pillarId":"pillar/news","pillarName":"News"},{"id":"world/2019/jun/15/thousands-of-syrian-refugees-could-be-sent-back-says-lebanese-minister","type":"article","sectionId":"world","sectionName":"World news","webPublicationDate":"2019-06-15T04:00:11Z","webTitle":"Thousands of Syrian refugees could be sent back, says Lebanese minister","webUrl":"https://www.theguardian.com/world/2019/jun/15/thousands-of-syrian-refugees-could-be-sent-back-says-lebanese-minister","apiUrl":"https://content.guardianapis.com/world/2019/jun/15/thousands-of-syrian-refugees-could-be-sent-back-says-lebanese-minister","isHosted":false,"pillarId":"pillar/news","pillarName":"News"},{"id":"world/2019/jun/15/captain-of-migrant-rescue-ship-says-italy-criminalising-solidarity","type":"article","sectionId":"world","sectionName":"World news","webPublicationDate":"2019-06-15T04:00:09Z","webTitle":"Captain of migrant rescue ship says Italy 'criminalising solidarity'","webUrl":"https://www.theguardian.com/world/2019/jun/15/captain-of-migrant-rescue-ship-says-italy-criminalising-solidarity","apiUrl":"https://content.guardianapis.com/world/2019/jun/15/captain-of-migrant-rescue-ship-says-italy-criminalising-solidarity","isHosted":false,"pillarId":"pillar/news","pillarName":"News"},{"id":"world/2019/jun/15/accused-the-russians-facing-politically-motivated-charges","type":"article","sectionId":"world","sectionName":"World news","webPublicationDate":"2019-06-15T04:00:09Z","webTitle":"Accused: the Russians facing 'politically motivated' charges","webUrl":"https://www.theguardian.com/world/2019/jun/15/accused-the-russians-facing-politically-motivated-charges","apiUrl":"https://content.guardianapis.com/world/2019/jun/15/accused-the-russians-facing-politically-motivated-charges","isHosted":false,"pillarId":"pillar/news","pillarName":"News"},{"id":"world/2019/jun/14/us-accuses-iran-of-detaining-crew-after-oil-tanker-attack","type":"article","sectionId":"world","sectionName":"World news","webPublicationDate":"2019-06-14T18:37:32Z","webTitle":"UK joins US in accusing Iran of tanker attacks as crew held","webUrl":"https://www.theguardian.com/world/2019/jun/14/us-accuses-iran-of-detaining-crew-after-oil-tanker-attack","apiUrl":"https://content.guardianapis.com/world/2019/jun/14/us-accuses-iran-of-detaining-crew-after-oil-tanker-attack","isHosted":false,"pillarId":"pillar/news","pillarName":"News"},{"id":"world/2019/jun/14/mexico-avocados-stolen-michoacan","type":"article","sectionId":"world","sectionName":"World news","webPublicationDate":"2019-06-14T18:27:46Z","webTitle":"Up to four avocado trucks stolen in Mexican state every day","webUrl":"https://www.theguardian.com/world/2019/jun/14/mexico-avocados-stolen-michoacan","apiUrl":"https://content.guardianapis.com/world/2019/jun/14/mexico-avocados-stolen-michoacan","isHosted":false,"pillarId":"pillar/news","pillarName":"News"},{"id":"world/2019/jun/14/shinzo-abe-iran-ayatollah-talks-analysis-trump","type":"article","sectionId":"world","sectionName":"World news","webPublicationDate":"2019-06-14T18:18:48Z","webTitle":"Trump's maximum pressure train hits buffers with Abe's doomed Iran mission","webUrl":"https://www.theguardian.com/world/2019/jun/14/shinzo-abe-iran-ayatollah-talks-analysis-trump","apiUrl":"https://content.guardianapis.com/world/2019/jun/14/shinzo-abe-iran-ayatollah-talks-analysis-trump","isHosted":false,"pillarId":"pillar/news","pillarName":"News"},{"id":"world/2019/jun/14/abortion-texas-waskom-all-white-male-council","type":"article","sectionId":"world","sectionName":"World news","webPublicationDate":"2019-06-14T17:49:33Z","webTitle":"This all-male council in Texas just voted to ban abortion","webUrl":"https://www.theguardian.com/world/2019/jun/14/abortion-texas-waskom-all-white-male-council","apiUrl":"https://content.guardianapis.com/world/2019/jun/14/abortion-texas-waskom-all-white-male-council","isHosted":false,"pillarId":"pillar/news","pillarName":"News"},{"id":"world/2019/jun/14/kensington-and-chelsea-vetoes-flagship-road-safety-scheme","type":"article","sectionId":"world","sectionName":"World news","webPublicationDate":"2019-06-14T17:17:26Z","webTitle":"Kensington and Chelsea vetoes flagship road safety scheme","webUrl":"https://www.theguardian.com/world/2019/jun/14/kensington-and-chelsea-vetoes-flagship-road-safety-scheme","apiUrl":"https://content.guardianapis.com/world/2019/jun/14/kensington-and-chelsea-vetoes-flagship-road-safety-scheme","isHosted":false,"pillarId":"pillar/news","pillarName":"News"},{"id":"world/2019/jun/14/roddy-kentish-obituary","type":"article","sectionId":"world","sectionName":"World news","webPublicationDate":"2019-06-14T15:42:48Z","webTitle":"Roddy Kentish obituary","webUrl":"https://www.theguardian.com/world/2019/jun/14/roddy-kentish-obituary","apiUrl":"https://content.guardianapis.com/world/2019/jun/14/roddy-kentish-obituary","isHosted":false,"pillarId":"pillar/news","pillarName":"News"}]}}